<svg width="84" height="83" viewBox="0 0 84 83" fill="none" xmlns="http://www.w3.org/2000/svg">
<g clip-path="url(#clip0_116_45)">
<path d="M80.4549 42.0037C80.4552 41.3533 80.2743 40.7156 79.9324 40.1623C79.5905 39.609 79.1013 39.1619 78.5194 38.8712L67.2809 33.2537L78.5194 27.6537C79.1019 27.3634 79.5918 26.9165 79.9343 26.3631C80.2768 25.8098 80.4582 25.1719 80.4582 24.5212C80.4582 23.8704 80.2768 23.2325 79.9343 22.6792C79.5918 22.1259 79.1019 21.6789 78.5194 21.3887L43.5194 3.88866C43.0336 3.64591 42.498 3.51953 41.9549 3.51953C41.4119 3.51953 40.8762 3.64591 40.3904 3.88866L5.39043 21.3887C4.808 21.6789 4.31804 22.1259 3.97556 22.6792C3.63309 23.2325 3.45166 23.8704 3.45166 24.5212C3.45166 25.1719 3.63309 25.8098 3.97556 26.3631C4.31804 26.9165 4.808 27.3634 5.39043 27.6537L16.6289 33.2537L5.39043 38.8712C4.808 39.1614 4.31804 39.6084 3.97556 40.1617C3.63309 40.715 3.45166 41.3529 3.45166 42.0037C3.45166 42.6544 3.63309 43.2923 3.97556 43.8456C4.31804 44.399 4.808 44.8459 5.39043 45.1362L16.6289 50.7537L5.39043 56.3712C4.808 56.6614 4.31804 57.1084 3.97556 57.6617C3.63309 58.215 3.45166 58.8529 3.45166 59.5037C3.45166 60.1544 3.63309 60.7923 3.97556 61.3456C4.31804 61.899 4.808 62.3459 5.39043 62.6362L40.3904 80.1362C40.8762 80.3789 41.4119 80.5053 41.9549 80.5053C42.498 80.5053 43.0336 80.3789 43.5194 80.1362L78.5194 62.6362C79.1019 62.3459 79.5918 61.899 79.9343 61.3456C80.2768 60.7923 80.4582 60.1544 80.4582 59.5037C80.4582 58.8529 80.2768 58.215 79.9343 57.6617C79.5918 57.1084 79.1019 56.6614 78.5194 56.3712L67.2809 50.7537L78.5194 45.1537C79.1039 44.8616 79.595 44.4118 79.937 43.8551C80.2791 43.2984 80.4585 42.657 80.4549 42.0037ZM69.1289 59.5037L41.9549 73.0907L14.7809 59.5037L24.4549 54.6667L40.3904 62.6537C40.8762 62.8964 41.4119 63.0228 41.9549 63.0228C42.498 63.0228 43.0336 62.8964 43.5194 62.6537L59.4549 54.6667L69.1289 59.5037ZM41.9549 55.5907L14.7809 42.0037L24.4549 37.1667L40.3904 45.1537C40.8762 45.3964 41.4119 45.5228 41.9549 45.5228C42.498 45.5228 43.0336 45.3964 43.5194 45.1537L59.4549 37.1667L69.1289 42.0037L41.9549 55.5907Z" fill="#F4F4F4"/>
</g>
<defs>
<clipPath id="clip0_116_45">
<rect width="83" height="82" fill="white" transform="translate(0.726562 0.718506)"/>
</clipPath>
</defs>
</svg>
